id;date;worktime;comment
1;2020-03-04T04:10:24;61689;Licensed moderator SMS
2;2020-03-04T10:45:44;16924;International
3;2020-03-04T10:41:42;78238;Quality driver bluetooth
4;2020-03-04T06:01:41;73481;Turkmenistan
5;2020-03-04T14:32:37;96434;withdrawal
6;2020-03-04T11:23:41;50681;users green
7;2020-03-03T20:34:10;87309;uniform Unbranded Stand-alone
8;2020-03-03T22:45:26;71731;capacitor e-tailers
9;2020-03-03T20:47:14;96166;turquoise hack
10;2020-03-04T10:20:59;72436;Checking Account International bluetooth
